{
  "count": 9082,
  "next": "http:\/\/head.ouetag.org\/api\/etag\/tag_reads\/.json?page=2",
  "previous": null,
  "results": [
    {
      "url": "http:\/\/head.ouetag.org\/api\/etag\/tag_reads\/6\/.json",
      "reader": "12007",
      "tag": "0416C96A5D",
      "tag_timestamp": "2012-04-26T16:08:29Z"
    },
    {
      "url": "http:\/\/head.ouetag.org\/api\/etag\/tag_reads\/7\/.json",
      "reader": "12007",
      "tag": "0416C973CA",
      "tag_timestamp": "2012-04-26T16:36:33Z"
    },
    {
      "url": "http:\/\/head.ouetag.org\/api\/etag\/tag_reads\/8\/.json",
      "reader": "12007",
      "tag": "0416C973CA",
      "tag_timestamp": "2012-04-26T16:36:48Z"
    },
    {
      "url": "http:\/\/head.ouetag.org\/api\/etag\/tag_reads\/9\/.json",
      "reader": "12007",
      "tag": "0416C973CA",
      "tag_timestamp": "2012-04-26T16:37:18Z"
    },
    {
      "url": "http:\/\/head.ouetag.org\/api\/etag\/tag_reads\/10\/.json",
      "reader": "12007",
      "tag": "0416C973CA",
      "tag_timestamp": "2012-04-26T16:37:36Z"
    },
    {
      "url": "http:\/\/head.ouetag.org\/api\/etag\/tag_reads\/11\/.json",
      "reader": "12007",
      "tag": "0416C973CA",
      "tag_timestamp": "2012-04-26T16:38:06Z"
    },
    {
      "url": "http:\/\/head.ouetag.org\/api\/etag\/tag_reads\/12\/.json",
      "reader": "12007",
      "tag": "0416C973CA",
      "tag_timestamp": "2012-04-26T16:38:23Z"
    },
    {
      "url": "http:\/\/head.ouetag.org\/api\/etag\/tag_reads\/13\/.json",
      "reader": "12007",
      "tag": "0416C973CA",
      "tag_timestamp": "2012-04-26T16:38:46Z"
    },
    {
      "url": "http:\/\/head.ouetag.org\/api\/etag\/tag_reads\/14\/.json",
      "reader": "12007",
      "tag": "0416C973CA",
      "tag_timestamp": "2012-04-26T16:39:09Z"
    },
    {
      "url": "http:\/\/head.ouetag.org\/api\/etag\/tag_reads\/15\/.json",
      "reader": "12007",
      "tag": "0416C973CA",
      "tag_timestamp": "2012-04-26T16:39:39Z"
    },
    {
      "url": "http:\/\/head.ouetag.org\/api\/etag\/tag_reads\/16\/.json",
      "reader": "12007",
      "tag": "0416C973CA",
      "tag_timestamp": "2012-04-26T17:18:44Z"
    },
    {
      "url": "http:\/\/head.ouetag.org\/api\/etag\/tag_reads\/17\/.json",
      "reader": "12007",
      "tag": "0416C973CA",
      "tag_timestamp": "2012-04-26T17:19:03Z"
    },
    {
      "url": "http:\/\/head.ouetag.org\/api\/etag\/tag_reads\/18\/.json",
      "reader": "12007",
      "tag": "0416C973CA",
      "tag_timestamp": "2012-04-26T17:19:42Z"
    },
    {
      "url": "http:\/\/head.ouetag.org\/api\/etag\/tag_reads\/19\/.json",
      "reader": "12007",
      "tag": "0416C973CA",
      "tag_timestamp": "2012-04-26T17:20:00Z"
    },
    {
      "url": "http:\/\/head.ouetag.org\/api\/etag\/tag_reads\/20\/.json",
      "reader": "12007",
      "tag": "0416C97EAC",
      "tag_timestamp": "2012-04-26T17:29:26Z"
    },
    {
      "url": "http:\/\/head.ouetag.org\/api\/etag\/tag_reads\/21\/.json",
      "reader": "12007",
      "tag": "0416C97EAC",
      "tag_timestamp": "2012-04-26T17:30:32Z"
    },
    {
      "url": "http:\/\/head.ouetag.org\/api\/etag\/tag_reads\/22\/.json",
      "reader": "12007",
      "tag": "0416C973CA",
      "tag_timestamp": "2012-04-26T17:37:43Z"
    },
    {
      "url": "http:\/\/head.ouetag.org\/api\/etag\/tag_reads\/23\/.json",
      "reader": "12007",
      "tag": "0416C973CA",
      "tag_timestamp": "2012-04-26T17:49:19Z"
    },
    {
      "url": "http:\/\/head.ouetag.org\/api\/etag\/tag_reads\/24\/.json",
      "reader": "12007",
      "tag": "0416C973CA",
      "tag_timestamp": "2012-04-26T17:49:41Z"
    },
    {
      "url": "http:\/\/head.ouetag.org\/api\/etag\/tag_reads\/25\/.json",
      "reader": "12007",
      "tag": "0416C973CA",
      "tag_timestamp": "2012-04-26T17:49:56Z"
    },
    {
      "url": "http:\/\/head.ouetag.org\/api\/etag\/tag_reads\/26\/.json",
      "reader": "12007",
      "tag": "0416C973CA",
      "tag_timestamp": "2012-04-26T17:50:09Z"
    },
    {
      "url": "http:\/\/head.ouetag.org\/api\/etag\/tag_reads\/27\/.json",
      "reader": "12007",
      "tag": "0416C973CA",
      "tag_timestamp": "2012-04-26T17:50:42Z"
    },
    {
      "url": "http:\/\/head.ouetag.org\/api\/etag\/tag_reads\/28\/.json",
      "reader": "12007",
      "tag": "0416C973CA",
      "tag_timestamp": "2012-04-26T17:51:11Z"
    },
    {
      "url": "http:\/\/head.ouetag.org\/api\/etag\/tag_reads\/29\/.json",
      "reader": "12007",
      "tag": "0416C973CA",
      "tag_timestamp": "2012-04-26T17:51:26Z"
    },
    {
      "url": "http:\/\/head.ouetag.org\/api\/etag\/tag_reads\/30\/.json",
      "reader": "12007",
      "tag": "0416C973CA",
      "tag_timestamp": "2012-04-26T18:18:42Z"
    },
    {
      "url": "http:\/\/head.ouetag.org\/api\/etag\/tag_reads\/31\/.json",
      "reader": "12007",
      "tag": "0416C973CA",
      "tag_timestamp": "2012-04-26T18:18:49Z"
    },
    {
      "url": "http:\/\/head.ouetag.org\/api\/etag\/tag_reads\/32\/.json",
      "reader": "12007",
      "tag": "0416C973CA",
      "tag_timestamp": "2012-04-26T18:19:45Z"
    },
    {
      "url": "http:\/\/head.ouetag.org\/api\/etag\/tag_reads\/33\/.json",
      "reader": "12007",
      "tag": "0416C973CA",
      "tag_timestamp": "2012-04-26T18:34:33Z"
    },
    {
      "url": "http:\/\/head.ouetag.org\/api\/etag\/tag_reads\/34\/.json",
      "reader": "12007",
      "tag": "0416C973CA",
      "tag_timestamp": "2012-04-26T18:34:51Z"
    },
    {
      "url": "http:\/\/head.ouetag.org\/api\/etag\/tag_reads\/35\/.json",
      "reader": "12007",
      "tag": "0416C973CA",
      "tag_timestamp": "2012-04-26T18:36:34Z"
    },
    {
      "url": "http:\/\/head.ouetag.org\/api\/etag\/tag_reads\/36\/.json",
      "reader": "12007",
      "tag": "0416C973CA",
      "tag_timestamp": "2012-04-26T18:37:15Z"
    },
    {
      "url": "http:\/\/head.ouetag.org\/api\/etag\/tag_reads\/37\/.json",
      "reader": "12007",
      "tag": "0416C973CA",
      "tag_timestamp": "2012-04-26T18:52:41Z"
    },
    {
      "url": "http:\/\/head.ouetag.org\/api\/etag\/tag_reads\/38\/.json",
      "reader": "12007",
      "tag": "0416C973CA",
      "tag_timestamp": "2012-04-26T18:53:32Z"
    },
    {
      "url": "http:\/\/head.ouetag.org\/api\/etag\/tag_reads\/39\/.json",
      "reader": "12007",
      "tag": "0416C973CA",
      "tag_timestamp": "2012-04-26T18:53:48Z"
    },
    {
      "url": "http:\/\/head.ouetag.org\/api\/etag\/tag_reads\/40\/.json",
      "reader": "12007",
      "tag": "0416C973CA",
      "tag_timestamp": "2012-04-27T05:59:08Z"
    },
    {
      "url": "http:\/\/head.ouetag.org\/api\/etag\/tag_reads\/41\/.json",
      "reader": "12007",
      "tag": "0416C973CA",
      "tag_timestamp": "2012-04-27T05:59:33Z"
    },
    {
      "url": "http:\/\/head.ouetag.org\/api\/etag\/tag_reads\/42\/.json",
      "reader": "12007",
      "tag": "0416C973CA",
      "tag_timestamp": "2012-04-27T06:00:00Z"
    },
    {
      "url": "http:\/\/head.ouetag.org\/api\/etag\/tag_reads\/43\/.json",
      "reader": "12007",
      "tag": "0416C973CA",
      "tag_timestamp": "2012-04-27T06:00:31Z"
    },
    {
      "url": "http:\/\/head.ouetag.org\/api\/etag\/tag_reads\/44\/.json",
      "reader": "12007",
      "tag": "0416C973CA",
      "tag_timestamp": "2012-04-27T06:02:12Z"
    },
    {
      "url": "http:\/\/head.ouetag.org\/api\/etag\/tag_reads\/45\/.json",
      "reader": "12007",
      "tag": "0416C973CA",
      "tag_timestamp": "2012-04-27T06:02:23Z"
    },
    {
      "url": "http:\/\/head.ouetag.org\/api\/etag\/tag_reads\/46\/.json",
      "reader": "12007",
      "tag": "0416C973CA",
      "tag_timestamp": "2012-04-27T06:14:01Z"
    },
    {
      "url": "http:\/\/head.ouetag.org\/api\/etag\/tag_reads\/47\/.json",
      "reader": "12007",
      "tag": "0416C973CA",
      "tag_timestamp": "2012-04-27T06:14:15Z"
    },
    {
      "url": "http:\/\/head.ouetag.org\/api\/etag\/tag_reads\/48\/.json",
      "reader": "12007",
      "tag": "0416C973CA",
      "tag_timestamp": "2012-04-27T06:14:36Z"
    },
    {
      "url": "http:\/\/head.ouetag.org\/api\/etag\/tag_reads\/49\/.json",
      "reader": "12007",
      "tag": "0416C973CA",
      "tag_timestamp": "2012-04-27T06:14:52Z"
    },
    {
      "url": "http:\/\/head.ouetag.org\/api\/etag\/tag_reads\/50\/.json",
      "reader": "12007",
      "tag": "0416C973CA",
      "tag_timestamp": "2012-04-27T06:15:15Z"
    },
    {
      "url": "http:\/\/head.ouetag.org\/api\/etag\/tag_reads\/51\/.json",
      "reader": "12007",
      "tag": "0416C973CA",
      "tag_timestamp": "2012-04-27T06:34:44Z"
    },
    {
      "url": "http:\/\/head.ouetag.org\/api\/etag\/tag_reads\/52\/.json",
      "reader": "12007",
      "tag": "0416C973CA",
      "tag_timestamp": "2012-04-27T06:56:10Z"
    },
    {
      "url": "http:\/\/head.ouetag.org\/api\/etag\/tag_reads\/53\/.json",
      "reader": "12007",
      "tag": "0416C973CA",
      "tag_timestamp": "2012-04-27T06:57:21Z"
    },
    {
      "url": "http:\/\/head.ouetag.org\/api\/etag\/tag_reads\/54\/.json",
      "reader": "12007",
      "tag": "0416C973CA",
      "tag_timestamp": "2012-04-27T07:05:42Z"
    },
    {
      "url": "http:\/\/head.ouetag.org\/api\/etag\/tag_reads\/55\/.json",
      "reader": "12007",
      "tag": "0416C973CA",
      "tag_timestamp": "2012-04-27T07:06:33Z"
    }
  ]
}
